^C:\USERS\NICO-PC\DOCUMENTS\P3-C-JSON\P3-JSON\P3 JSON\STDAFX.CPP
/c /I"C:\USERS\NICO-PC\DOCUMENTS\P3-C-JSON\P3-JSON\POCO\INCLUDE" /ZI /nologo /W3 /WX- /diagnostics:classic /sdl /Od /Oy- /D WIN32 /D _DEBUG /D _CONSOLE /D _UNICODE /D UNICODE /Gm /EHsc /RTC1 /MDd /GS /fp:precise /Zc:wchar_t /Zc:forScope /Zc:inline /Yc"stdafx.h" /Fp"DEBUG\P3 JSON.PCH" /Fo"DEBUG\\" /Fd"DEBUG\VC141.PDB" /Gd /TP /analyze- C:\USERS\NICO-PC\DOCUMENTS\P3-C-JSON\P3-JSON\P3 JSON\STDAFX.CPP
^C:\USERS\NICO-PC\DOCUMENTS\P3-C-JSON\P3-JSON\P3 JSON\P3 JSON.CPP
/c /I"C:\USERS\NICO-PC\DOCUMENTS\P3-C-JSON\P3-JSON\POCO\INCLUDE" /ZI /nologo /W3 /WX- /diagnostics:classic /sdl /Od /Oy- /D WIN32 /D _DEBUG /D _CONSOLE /D _UNICODE /D UNICODE /Gm /EHsc /RTC1 /MDd /GS /fp:precise /Zc:wchar_t /Zc:forScope /Zc:inline /Yu"stdafx.h" /Fp"DEBUG\P3 JSON.PCH" /Fo"DEBUG\\" /Fd"DEBUG\VC141.PDB" /Gd /TP /analyze- C:\USERS\NICO-PC\DOCUMENTS\P3-C-JSON\P3-JSON\P3 JSON\P3 JSON.CPP
